Timestamp,User Count,Type,Name,Requests/s,Failures/s,50%,66%,75%,80%,90%,95%,98%,99%,99.9%,99.99%,100%,Total Request Count,Total Failure Count,Total Median Response Time,Total Average Response Time,Total Min Response Time,Total Max Response Time,Total Average Content Size
1650827717,0,,Aggregated,0.000000,0.000000,N/A,N/A,N/A,N/A,N/A,N/A,N/A,N/A,N/A,N/A,N/A,0,0,0,0,0,0,0
1650827718,2,,Aggregated,0.000000,0.000000,40,40,40,40,40,40,40,40,40,40,40,2,0,40,39.83404699965831,39.51686199980031,40.15123199951631,120.5
1650827719,4,,Aggregated,0.000000,0.000000,26,26,40,40,40,40,40,40,40,40,40,6,0,22,26.509699666651915,14.710942999954568,40.15123199951631,124.5
1650827720,6,,Aggregated,2.000000,0.000000,18,26,27,32,40,40,40,40,40,40,40,13,0,18,22.435727230703588,12.813389000257303,40.15123199951631,126.46153846153847
1650827721,8,,Aggregated,2.000000,0.000000,18,22,26,27,32,40,40,40,40,40,40,22,0,17,20.95673504543976,12.813389000257303,40.15123199951631,125.54545454545455
1650827722,10,,Aggregated,3.333333,0.000000,18,24,26,27,32,40,40,40,40,40,40,32,0,18,21.011618218722106,12.813389000257303,40.15123199951631,126.375
1650827723,12,,Aggregated,4.000000,0.000000,18,22,26,27,32,40,40,40,40,40,40,39,0,18,20.63356543590672,12.813389000257303,40.15123199951631,126.92307692307692
1650827724,14,,Aggregated,5.000000,0.000000,18,25,27,29,32,42,45,45,45,45,45,51,0,18,21.872707529463,12.650727000618645,44.708091999382304,126.15686274509804
1650827725,16,,Aggregated,5.833333,0.000000,18,24,26,28,32,40,45,45,45,45,45,66,0,18,21.378363742452635,12.650727000618645,44.708091999382304,125.8030303030303
1650827726,18,,Aggregated,6.285714,0.000000,19,24,27,29,33,40,45,45,45,45,45,76,0,18,21.812731315812446,12.650727000618645,44.708091999382304,125.59210526315789
1650827727,20,,Aggregated,7.500000,0.000000,19,24,27,31,40,52,67,81,81,81,81,93,0,19,23.680653107544703,12.650727000618645,81.39808399937465,124.89247311827957
1650827728,20,,Aggregated,7.666667,0.000000,19,25,28,29,37,45,62,67,81,81,81,105,0,19,23.701725952395506,12.650727000618645,81.39808399937465,125.37142857142857
1650827729,20,,Aggregated,8.400000,0.000000,20,25,28,29,40,52,71,75,81,81,81,123,0,20,24.374414512209572,12.650727000618645,81.39808399937465,125.1951219512195
1650827730,20,,Aggregated,9.500000,0.000000,19,24,27,29,40,52,71,75,81,81,81,134,0,19,23.92519604478339,12.650727000618645,81.39808399937465,124.99253731343283
1650827731,20,,Aggregated,10.500000,0.000000,20,24,28,29,42,57,71,75,81,81,81,151,0,20,24.736584993396363,12.650727000618645,81.39808399937465,124.90066225165563
1650827732,20,,Aggregated,11.800000,0.000000,20,24,28,30,42,54,71,75,81,81,81,168,0,20,24.697047684542536,12.650727000618645,81.39808399937465,124.88095238095238
1650827733,20,,Aggregated,12.300000,0.000000,20,24,28,30,40,53,71,75,81,81,81,184,0,20,24.38876189132869,12.650727000618645,81.39808399937465,125.0163043478261
1650827734,20,,Aggregated,13.500000,0.000000,19,24,27,30,39,53,71,75,81,81,81,195,0,19,24.074427641053028,12.132473000747268,81.39808399937465,124.8051282051282
1650827735,20,,Aggregated,14.100000,0.000000,19,24,26,30,39,52,67,74,81,81,81,210,0,19,23.876460804785893,12.132473000747268,81.39808399937465,124.85714285714286
1650827736,20,,Aggregated,14.100000,0.000000,19,24,26,30,38,51,67,74,81,81,81,225,0,19,23.77375957335769,12.132473000747268,81.39808399937465,125.03111111111112
1650827737,0,,Aggregated,14.200000,0.000000,19,24,26,30,38,51,67,74,81,81,81,233,0,19,23.735246845514506,12.132473000747268,81.39808399937465,124.99570815450643
